…
``` r
p1_vals <- melted %>%
  filter(label == "CD45") %>%
  filter(islet_score != "Normal") %>%
  rstatix::group_by(protein) %>%
  rstatix::t_test(expression ~ islet_score) %>%
  rstatix::adjust_pvalue(p.col = "p", method = "BH") %>%
  rstatix::add_significance(p.col = "p.adj") %>% 
  rstatix::add_xy_position(x = "protein", dodge = 0.8) # important for positioning!
p1_vals$y.position <- log2(p1_vals$y.position)
p1_vals
```

    ## # A tibble: 69 x 16
    ##    protein    .y.        group1  group2    n1    n2 statistic    df      p p.adj
    ##    <fct>      <chr>      <chr>   <chr>  <int> <int>     <dbl> <dbl>  <dbl> <dbl>
    ##  1 S6         expression Insuli~ Peri.~    70    34   -2.76    56.1 0.0078 0.179
    ##  2 Histone.H3 expression Insuli~ Peri.~    70    34   -0.0964  48.1 0.924  0.996
    ##  3 CD45       expression Insuli~ Peri.~    70    34    2.14    80.0 0.0354 0.244
    ##  4 SMA        expression Insuli~ Peri.~    70    34    1.66    80.9 0.0998 0.574
    ##  5 Pan.AKT    expression Insuli~ Peri.~    70    34    0.847   67.9 0.4    0.852
    ##  6 GAPDH      expression Insuli~ Peri.~    70    34    1.23    56.5 0.225  0.707
    ##  7 IFNGR      expression Insuli~ Peri.~    70    34    0.614   61.3 0.542  0.92 
    ##  8 BAD        expression Insuli~ Peri.~    70    34   -0.600   64.2 0.551  0.92 
    ##  9 CD44       expression Insuli~ Peri.~    70    34   -0.445   80.2 0.657  0.940
    ## 10 CD4        expression Insuli~ Peri.~    70    34    2.27    87.7 0.0255 0.220
    ## # ... with 59 more rows, and 6 more variables: p.adj.signif <chr>,
    ## #   y.position <dbl>, groups <named list>, x <dbl>, xmin <dbl>, xmax <dbl>
…
